{
  "adult": false,
  "backdrop_path": "/3s9O5af2xWKWR5JzP2iJZpZeQQg.jpg",
  "belongs_to_collection": {
    "id": 328,
    "name": "Jurassic Park - Saga",
    "poster_path": "/kzlJS8Vnd0jJFDxFFAwsVofVgLP.jpg",
    "backdrop_path": "/pJjIH9QN0OkHFV9eue6XfRVnPkr.jpg"
  },
  "budget": 170000000,
  "genres": [
    {
      "id": 28,
      "name": "Action"
    },
    {
      "id": 12,
      "name": "Aventure"
    },
    {
      "id": 878,
      "name": "Science-Fiction"
    }
  ],
  "homepage": "http://www.jurassicworld.com/",
  "id": 351286,
  "imdb_id": "tt4881806",
  "original_language": "en",
  "original_title": "Jurassic World: Fallen Kingdom",
  "overview": "Cela fait maintenant quatre ans que les dinosaures se sont échappés de leurs enclos et ont détruit le parc à thème et complexe de luxe Jurassic World. Isla Nublar a été abandonnée par les humains alors que les dinosaures survivants sont livrés à eux-mêmes dans la jungle. Lorsque le volcan inactif de l'île commence à rugir, Owen et Claire s’organisent pour sauver les dinosaures restants de l’extinction.  Owen se fait un devoir de retrouver Blue, son principal raptor qui a disparu dans la nature, alors que Claire, qui a maintenant un véritable respect pour ces créatures, s’en fait une mission. Arrivant sur l'île instable alors que la lave commence à pleuvoir, leur expédition découvre une conspiration qui pourrait ramener toute notre planète à un ordre périlleux jamais vu depuis la préhistoire.",
  "popularity": 92.093,
  "poster_path": "/9EwjVrXqYmm3Q5xWJyG1TmtTF8j.jpg",
  "production_companies": [
    {
      "id": 56,
      "logo_path": "/cEaxANEisCqeEoRvODv2dO1I0iI.png",
      "name": "Amblin Entertainment",
      "origin_country": "US"
    },
    {
      "id": 8111,
      "logo_path": null,
      "name": "Apaches Entertainment",
      "origin_country": ""
    },
    {
      "id": 923,
      "logo_path": "/5UQsZrfbfG2dYJbx8DxfoTr2Bvu.png",
      "name": "Legendary Entertainment",
      "origin_country": "US"
    },
    {
      "id": 33,
      "logo_path": "/8lvHyhjr8oUKOOy2dKXoALWKdp0.png",
      "name": "Universal Pictures",
      "origin_country": "US"
    },
    {
      "id": 10338,
      "logo_path": "/el2ap6lvjcEDdbyJoB3oKiYgXu9.png",
      "name": "Perfect World Pictures",
      "origin_country": "CN"
    },
    {
      "id": 862,
      "logo_path": "/udTjbqPmcTbfrihMuLtLcizDEM1.png",
      "name": "The Kennedy/Marshall Company",
      "origin_country": "US"
    }
  ],
  "production_countries": [
    {
      "iso_3166_1": "US",
      "name": "United States of America"
    }
  ],
  "release_date": "2018-06-06",
  "revenue": 1202110361,
  "runtime": 128,
  "spoken_languages": [
    {
      "iso_639_1": "en",
      "name": "English"
    }
  ],
  "status": "Released",
  "tagline": "",
  "title": "Jurassic World : Fallen Kingdom",
  "video": false,
  "vote_average": 6.6,
  "vote_count": 2804,
  "credits": {
    "cast": [
      {
        "cast_id": 2,
        "character": "Owen Grady",
        "credit_id": "55b239bac3a3682ff900f241",
        "gender": 2,
        "id": 73457,
        "name": "Chris Pratt",
        "order": 0,
        "profile_path": "/n4DD1AYU7WEMNPLga1TxqnHivn1.jpg"
      },
      {
        "cast_id": 3,
        "character": "Claire Dearing",
        "credit_id": "55b239cfc3a368246c00a2df",
        "gender": 1,
        "id": 18997,
        "name": "Bryce Dallas Howard",
        "order": 1,
        "profile_path": "/7HIHalGGoJd101Wt3Y78Znfiohj.jpg"
      },
      {
        "cast_id": 195,
        "character": "Maisie Lockwood",
        "credit_id": "5b17d77c0e0a262de2022cb5",
        "gender": 1,
        "id": 2058708,
        "name": "Isabella Sermon",
        "order": 2,
        "profile_path": "/17lNC9C1mNuP0o5AJamwTJ9oaD5.jpg"
      },
      {
        "cast_id": 6,
        "character": "Eli Mills",
        "credit_id": "58411470c3a36865c60034dc",
        "gender": 2,
        "id": 28847,
        "name": "Rafe Spall",
        "order": 3,
        "profile_path": "/7ucsDEWvcMU4SpxtZEaYErPpXHh.jpg"
      },
      {
        "cast_id": 19,
        "character": "Sir Benjamin Lockwood",
        "credit_id": "5a1757da9251410339006d99",
        "gender": 2,
        "id": 2505,
        "name": "James Cromwell",
        "order": 4,
        "profile_path": "/f9HU6zS2K2DCRt2WoJBK61ElqPJ.jpg"
      },
      {
        "cast_id": 8,
        "character": "Franklin Webb",
        "credit_id": "58411483c3a36865b6003f8d",
        "gender": 2,
        "id": 1029934,
        "name": "Justice Smith",
        "order": 5,
        "profile_path": "/9G8pKfvfbqs5fmRo0VtlHqxdVBQ.jpg"
      },
      {
        "cast_id": 9,
        "character": "Dr. Zia Rodriguez",
        "credit_id": "5886948c92514113620048df",
        "gender": 1,
        "id": 1257819,
        "name": "Daniella Pineda",
        "order": 6,
        "profile_path": "/AdmgjO8pLFqN1H40uo7Ws4h6IyK.jpg"
      },
      {
        "cast_id": 20,
        "character": "Iris",
        "credit_id": "5a17581a0e0a264cd0007129",
        "gender": 1,
        "id": 400,
        "name": "Geraldine Chaplin",
        "order": 7,
        "profile_path": "/mnPoiJrhJjJArySW8wMpf84pCxu.jpg"
      },
      {
        "cast_id": 11,
        "character": "Ken Wheatley",
        "credit_id": "589ffb2fc3a3680306001634",
        "gender": 2,
        "id": 15854,
        "name": "Ted Levine",
        "order": 8,
        "profile_path": "/7O3vgqgicfNeGr3leC0qB074fjX.jpg"
      },
      {
        "cast_id": 7,
        "character": "Gunnar Eversol",
        "credit_id": "5841147d9251417d50003ce3",
        "gender": 2,
        "id": 13014,
        "name": "Toby Jones",
        "order": 9,
        "profile_path": "/9FUBqeLZZGz8Jmk9B18LODG6aky.jpg"
      },
      {
        "cast_id": 14,
        "character": "Dr. Henry Wu",
        "credit_id": "5994e4fd92514107ba00422e",
        "gender": 2,
        "id": 14592,
        "name": "BD Wong",
        "order": 10,
        "profile_path": "/w7Hs9m6ocS2qlibvrLOvmyCKbAN.jpg"
      },
      {
        "cast_id": 12,
        "character": "Dr. Ian Malcolm",
        "credit_id": "590005d6c3a368101e0049f7",
        "gender": 2,
        "id": 4785,
        "name": "Jeff Goldblum",
        "order": 11,
        "profile_path": "/kcyEPgYtBP5Pm6LLeLGfXKjYovL.jpg"
      },
      {
        "cast_id": 15,
        "character": "InGen Contractor",
        "credit_id": "5994e50fc3a36856bd0044e3",
        "gender": 2,
        "id": 20582,
        "name": "Michael Papajohn",
        "order": 12,
        "profile_path": "/9nVHCoYxCpGh9pO00xp7SybWd7b.jpg"
      },
      {
        "cast_id": 16,
        "character": "Jack",
        "credit_id": "5994e51e925141079a004240",
        "gender": 2,
        "id": 589652,
        "name": "Robert Emms",
        "order": 13,
        "profile_path": "/4wdONknsZLWHpH2NSyk0FyPPO8A.jpg"
      },
      {
        "cast_id": 17,
        "character": "Lead Mercenary",
        "credit_id": "5994e52a92514107c8004373",
        "gender": 0,
        "id": 1083177,
        "name": "Charlie Rawes",
        "order": 14,
        "profile_path": null
      },
      {
        "cast_id": 18,
        "character": "Russian Bodyguard",
        "credit_id": "5a1757750e0a264cca007095",
        "gender": 2,
        "id": 1481440,
        "name": "Daniel Stisen",
        "order": 15,
        "profile_path": "/jhyIFfBnM5nLhHdpFiGIW6qk9x5.jpg"
      },
      {
        "cast_id": 21,
        "character": "",
        "credit_id": "5a1758c89251410330006cd1",
        "gender": 2,
        "id": 1654736,
        "name": "Kamil Lemieszewski",
        "order": 16,
        "profile_path": "/lYd4BVmgQofkLVzDPzKE7RJzjNC.jpg"
      },
      {
        "cast_id": 196,
        "character": "Senator Sherwood",
        "credit_id": "5b5ad2b29251412ab800ad4f",
        "gender": 2,
        "id": 6916,
        "name": "Peter Jason",
        "order": 17,
        "profile_path": "/2VqCiv4R0kZW1Nwi60fIzmHKxpc.jpg"
      },
      {
        "cast_id": 197,
        "character": "Sub Pilot",
        "credit_id": "5b5bae35c3a36842210085e1",
        "gender": 0,
        "id": 2093764,
        "name": "Kevin Layne",
        "order": 18,
        "profile_path": null
      }
    ],
    "crew": [
      {
        "credit_id": "55b2398fc3a3683002010090",
        "department": "Writing",
        "gender": 2,
        "id": 1020013,
        "job": "Writer",
        "name": "Derek Connolly",
        "profile_path": null
      },
      {
        "credit_id": "55b239a09251411e0f010458",
        "department": "Writing",
        "gender": 2,
        "id": 930707,
        "job": "Writer",
        "name": "Colin Trevorrow",
        "profile_path": "/txsIRCos9meRg5dYCsrJ2BNbrsB.jpg"
      },
      {
        "credit_id": "576def4dc3a3682d6a000089",
        "department": "Directing",
        "gender": 2,
        "id": 51894,
        "job": "Director",
        "name": "Juan Antonio Bayona",
        "profile_path": "/cnbbnS7K8Uu6yohAfSRHv5Kxc7r.jpg"
      },
      {
        "credit_id": "588fdb91c3a3680bac000156",
        "department": "Visual Effects",
        "gender": 2,
        "id": 7727,
        "job": "Visual Effects",
        "name": "Phil Tippett",
        "profile_path": "/2uQ0B7fN5cDQk17J1X3pxDSf9y.jpg"
      },
      {
        "credit_id": "59028717c3a3682898000766",
        "department": "Writing",
        "gender": 2,
        "id": 4782,
        "job": "Characters",
        "name": "Michael Crichton",
        "profile_path": "/lAQ6LYkhdVxa2tDSCOGxQZ3t0wO.jpg"
      },
      {
        "credit_id": "5a7bcd139251414b1f007214",
        "department": "Sound",
        "gender": 2,
        "id": 15347,
        "job": "Original Music Composer",
        "name": "Michael Giacchino",
        "profile_path": "/2YW8sSVvRhCwiQmsFCgtFsGkbv8.jpg"
      },
      {
        "credit_id": "5abb621bc3a368436200f0cf",
        "department": "Camera",
        "gender": 0,
        "id": 51898,
        "job": "Director of Photography",
        "name": "Óscar Faura",
        "profile_path": null
      },
      {
        "credit_id": "5abb623e0e0a2609d200f351",
        "department": "Costume & Make-Up",
        "gender": 1,
        "id": 11271,
        "job": "Costume Design",
        "name": "Sammy Sheldon",
        "profile_path": null
      },
      {
        "credit_id": "5abb629cc3a368438800fe9b",
        "department": "Production",
        "gender": 2,
        "id": 25600,
        "job": "Producer",
        "name": "Patrick Crowley",
        "profile_path": null
      },
      {
        "credit_id": "5abb62c8c3a368439600fe88",
        "department": "Production",
        "gender": 0,
        "id": 17003,
        "job": "Producer",
        "name": "Belén Atienza",
        "profile_path": null
      },
      {
        "credit_id": "5abb63059251411ea300effb",
        "department": "Production",
        "gender": 0,
        "id": 1417407,
        "job": "Producer",
        "name": "Thomas Hayslip",
        "profile_path": null
      },
      {
        "credit_id": "5abb63629251411e9a00e826",
        "department": "Production",
        "gender": 2,
        "id": 664,
        "job": "Producer",
        "name": "Frank Marshall",
        "profile_path": "/dVPOD85wQ1Xscpe3DOVQ1I59IIF.jpg"
      },
      {
        "credit_id": "5abb63b3c3a368435f00e60c",
        "department": "Production",
        "gender": 2,
        "id": 488,
        "job": "Executive Producer",
        "name": "Steven Spielberg",
        "profile_path": "/pOK15UNaw75Bzj7BQO1ulehbPPm.jpg"
      },
      {
        "credit_id": "5abb63cb0e0a2609d500ffe7",
        "department": "Production",
        "gender": 2,
        "id": 930707,
        "job": "Executive Producer",
        "name": "Colin Trevorrow",
        "profile_path": "/txsIRCos9meRg5dYCsrJ2BNbrsB.jpg"
      },
      {
        "credit_id": "5abb63e3c3a368435c0100a5",
        "department": "Production",
        "gender": 0,
        "id": 54211,
        "job": "Executive Producer",
        "name": "Thomas Tull",
        "profile_path": "/5UG4FK7rsmhzJDYxpU28acqfxtu.jpg"
      },
      {
        "credit_id": "5abb64369251411ea300f117",
        "department": "Art",
        "gender": 2,
        "id": 9820,
        "job": "Production Design",
        "name": "Andy Nicholson",
        "profile_path": null
      },
      {
        "credit_id": "5abb64669251411e9700eb04",
        "department": "Editing",
        "gender": 0,
        "id": 16984,
        "job": "Editor",
        "name": "Bernat Vilaplana",
        "profile_path": null
      },
      {
        "credit_id": "5accc81cc3a3687e2702ba06",
        "department": "Production",
        "gender": 1,
        "id": 16363,
        "job": "Casting",
        "name": "Nina Gold",
        "profile_path": "/kljYhRvTAqQfX198mjz0ITP0hFM.jpg"
      },
      {
        "credit_id": "5accc835c3a3687e4002b44f",
        "department": "Art",
        "gender": 0,
        "id": 1394108,
        "job": "Art Direction",
        "name": "Guy Bradley",
        "profile_path": null
      },
      {
        "credit_id": "5accc84cc3a3687e480300dd",
        "department": "Art",
        "gender": 2,
        "id": 1385883,
        "job": "Art Direction",
        "name": "Anthony Caron-Delion",
        "profile_path": null
      },
      {
        "credit_id": "5accc863c3a3687e9502b0f6",
        "department": "Art",
        "gender": 0,
        "id": 1935968,
        "job": "Art Direction",
        "name": "Renate Nicolaisen",
        "profile_path": null
      },
      {
        "credit_id": "5accc8779251410c0300c9b8",
        "department": "Art",
        "gender": 0,
        "id": 1384722,
        "job": "Art Direction",
        "name": "Marco Anton Restivo",
        "profile_path": null
      },
      {
        "credit_id": "5accc8909251410bda00c1cf",
        "department": "Art",
        "gender": 0,
        "id": 1299326,
        "job": "Art Direction",
        "name": "Matt Wynne",
        "profile_path": null
      },
      {
        "credit_id": "5accc8afc3a368674c00d28b",
        "department": "Art",
        "gender": 1,
        "id": 15733,
        "job": "Set Decoration",
        "name": "Tina Jones",
        "profile_path": null
      },
      {
        "credit_id": "5accc8c8c3a3687e4002b514",
        "department": "Art",
        "gender": 2,
        "id": 41592,
        "job": "Supervising Art Director",
        "name": "Andrew Max Cahn",
        "profile_path": null
      },
      {
        "credit_id": "5accc8e59251410c0600c607",
        "department": "Art",
        "gender": 2,
        "id": 962164,
        "job": "Supervising Art Director",
        "name": "Jason Knox-Johnston",
        "profile_path": null
      },
      {
        "credit_id": "5accc9659251414344029db3",
        "department": "Costume & Make-Up",
        "gender": 0,
        "id": 1403425,
        "job": "Hairstylist",
        "name": "Mahealani Diego",
        "profile_path": null
      },
      {
        "credit_id": "5accc9799251410c4800cf91",
        "department": "Costume & Make-Up",
        "gender": 0,
        "id": 1437622,
        "job": "Hairstylist",
        "name": "Charlotte Rogers",
        "profile_path": null
      },
      {
        "credit_id": "5accc9f00e0a2631e702cdf8",
        "department": "Costume & Make-Up",
        "gender": 0,
        "id": 32282,
        "job": "Hairstylist",
        "name": "Mary L. Mastro",
        "profile_path": null
      },
      {
        "credit_id": "5accca03c3a36834de084ae8",
        "department": "Costume & Make-Up",
        "gender": 0,
        "id": 1449929,
        "job": "Hair Supervisor",
        "name": "Sarah Grispo",
        "profile_path": null
      },
      {
        "credit_id": "5accca1f0e0a2631fa02b593",
        "department": "Costume & Make-Up",
        "gender": 0,
        "id": 1449929,
        "job": "Makeup Supervisor",
        "name": "Sarah Grispo",
        "profile_path": null
      },
      {
        "credit_id": "5accca660e0a267f9a00d094",
        "department": "Art",
        "gender": 0,
        "id": 1481282,
        "job": "Art Department Coordinator",
        "name": "Andrea Carter",
        "profile_path": null
      },
      {
        "credit_id": "5accca82c3a3687e0e02988f",
        "department": "Art",
        "gender": 0,
        "id": 1170536,
        "job": "Art Department Coordinator",
        "name": "Tabitha Quitman",
        "profile_path": null
      },
      {
        "credit_id": "5accca9bc3a3687e2702bcce",
        "department": "Art",
        "gender": 0,
        "id": 1417411,
        "job": "Assistant Art Director",
        "name": "Anna Bregman",
        "profile_path": null
      },
      {
        "credit_id": "5acccaaec3a36834de084bc9",
        "department": "Art",
        "gender": 0,
        "id": 1770999,
        "job": "Assistant Art Director",
        "name": "Thomas Goodwin",
        "profile_path": null
      },
      {
        "credit_id": "5acccac4c3a3687e0e0298bf",
        "department": "Art",
        "gender": 0,
        "id": 1790904,
        "job": "Assistant Art Director",
        "name": "Laura Miller",
        "profile_path": null
      },
      {
        "credit_id": "5acccad60e0a267f9a00d107",
        "department": "Art",
        "gender": 0,
        "id": 1388860,
        "job": "Assistant Art Director",
        "name": "Matt Sims",
        "profile_path": null
      },
      {
        "credit_id": "5acccae70e0a267f9700f4cd",
        "department": "Art",
        "gender": 0,
        "id": 1533094,
        "job": "Assistant Art Director",
        "name": "Michael Gowen",
        "profile_path": null
      },
      {
        "credit_id": "5acccb26c3a36834de084c65",
        "department": "Art",
        "gender": 0,
        "id": 1403432,
        "job": "Construction Coordinator",
        "name": "Robert A. Blackburn",
        "profile_path": null
      },
      {
        "credit_id": "5acccb7c9251410bda00c4cf",
        "department": "Art",
        "gender": 0,
        "id": 117226,
        "job": "Property Master",
        "name": "Graeme Purdy",
        "profile_path": null
      },
      {
        "credit_id": "5acccb8dc3a3687e480304d6",
        "department": "Art",
        "gender": 0,
        "id": 1364406,
        "job": "Property Master",
        "name": "Gary Tuers",
        "profile_path": null
      },
      {
        "credit_id": "5acccc0a9251410bda00c567",
        "department": "Camera",
        "gender": 0,
        "id": 1759758,
        "job": "Aerial Camera Technician",
        "name": "Peter Graf",
        "profile_path": null
      },
      {
        "credit_id": "5acccc1d9251414341029a36",
        "department": "Camera",
        "gender": 0,
        "id": 1400092,
        "job": "Aerial Director of Photography",
        "name": "Jeremy Braben",
        "profile_path": null
      },
      {
        "credit_id": "5acccc3a925141433e02a6d7",
        "department": "Camera",
        "gender": 0,
        "id": 1408354,
        "job": "Camera Operator",
        "name": "Pete Cavaciuti",
        "profile_path": null
      },
      {
        "credit_id": "5acccc49c3a3687e2702bed9",
        "department": "Camera",
        "gender": 0,
        "id": 1819551,
        "job": "Camera Operator",
        "name": "Matthew Poynter",
        "profile_path": null
      },
      {
        "credit_id": "5acccc5b0e0a2631f702b63d",
        "department": "Camera",
        "gender": 2,
        "id": 1494209,
        "job": "Camera Operator",
        "name": "Richard Roles",
        "profile_path": null
      },
      {
        "credit_id": "5acccc6f0e0a2631e702d0d8",
        "department": "Camera",
        "gender": 0,
        "id": 1408354,
        "job": "Steadicam Operator",
        "name": "Pete Cavaciuti",
        "profile_path": null
      },
      {
        "credit_id": "5acccc94c3a368674c00d706",
        "department": "Camera",
        "gender": 0,
        "id": 2020355,
        "job": "Dolly Grip",
        "name": "Eric Ward",
        "profile_path": null
      },
      {
        "credit_id": "5accccb20e0a2631fa02b87d",
        "department": "Camera",
        "gender": 0,
        "id": 1769096,
        "job": "Dolly Grip",
        "name": "Richard T. Hoover",
        "profile_path": null
      },
      {
        "credit_id": "5accccc7c3a3687e4002b9f6",
        "department": "Camera",
        "gender": 0,
        "id": 1544416,
        "job": "Dolly Grip",
        "name": "Alex Coverley",
        "profile_path": null
      },
      {
        "credit_id": "5accccdd925141433e02a7d1",
        "department": "Lighting",
        "gender": 0,
        "id": 1463778,
        "job": "Best Boy Electric",
        "name": "Chris Weigand",
        "profile_path": null
      },
      {
        "credit_id": "5accccf10e0a2631f702b6fb",
        "department": "Lighting",
        "gender": 0,
        "id": 1463715,
        "job": "Best Boy Electric",
        "name": "Gregory Doi",
        "profile_path": null
      },
      {
        "credit_id": "5acccd0a9251410bda00c64e",
        "department": "Crew",
        "gender": 0,
        "id": 1819553,
        "job": "Drone Operator",
        "name": "Peter Ayriss",
        "profile_path": null
      },
      {
        "credit_id": "5acccd25c3a368674c00d7bc",
        "department": "Lighting",
        "gender": 0,
        "id": 1392943,
        "job": "Gaffer",
        "name": "Joshua Davis",
        "profile_path": null
      },
      {
        "credit_id": "5acccd37c3a3687e2702bfda",
        "department": "Lighting",
        "gender": 0,
        "id": 1430498,
        "job": "Gaffer",
        "name": "Lee Walters",
        "profile_path": null
      },
      {
        "credit_id": "5acccd549251410bda00c68d",
        "department": "Camera",
        "gender": 0,
        "id": 1966279,
        "job": "Key Grip",
        "name": "Alex Mott",
        "profile_path": null
      },
      {
        "credit_id": "5acccd63c3a3687e9502b6c0",
        "department": "Camera",
        "gender": 0,
        "id": 1757629,
        "job": "Key Grip",
        "name": "Jimi Ryan",
        "profile_path": null
      },
      {
        "credit_id": "5acccd7b0e0a2631f702b7a3",
        "department": "Camera",
        "gender": 0,
        "id": 1746669,
        "job": "Key Grip",
        "name": "Jerry C. Deats",
        "profile_path": null
      },
      {
        "credit_id": "5acccd9a9251414341029bbc",
        "department": "Lighting",
        "gender": 0,
        "id": 1463695,
        "job": "Lighting Technician",
        "name": "Stephen Bacquet",
        "profile_path": null
      },
      {
        "credit_id": "5acccdb10e0a267f9700f825",
        "department": "Lighting",
        "gender": 0,
        "id": 2020357,
        "job": "Lighting Technician",
        "name": "Jamie Bruce",
        "profile_path": null
      },
      {
        "credit_id": "5acccdc09251410bda00c707",
        "department": "Lighting",
        "gender": 0,
        "id": 2020358,
        "job": "Lighting Technician",
        "name": "Joe Hissey",
        "profile_path": null
      },
      {
        "credit_id": "5acccdf89251410bda00c746",
        "department": "Lighting",
        "gender": 0,
        "id": 2020359,
        "job": "Lighting Technician",
        "name": "William Self",
        "profile_path": null
      },
      {
        "credit_id": "5accce100e0a2631cc02db68",
        "department": "Lighting",
        "gender": 0,
        "id": 1422984,
        "job": "Rigging Gaffer",
        "name": "Steve Kitchen",
        "profile_path": null
      },
      {
        "credit_id": "5accce220e0a2631cc02db7d",
        "department": "Lighting",
        "gender": 0,
        "id": 1745314,
        "job": "Rigging Gaffer",
        "name": "Edward J. Cox",
        "profile_path": null
      },
      {
        "credit_id": "5accce3d0e0a2631cc02dbb2",
        "department": "Camera",
        "gender": 2,
        "id": 1407021,
        "job": "Steadicam Operator",
        "name": "Maceo Bishop",
        "profile_path": null
      },
      {
        "credit_id": "5accce4f9251410c3900d186",
        "department": "Camera",
        "gender": 2,
        "id": 76593,
        "job": "Still Photographer",
        "name": "Giles Keyte",
        "profile_path": null
      },
      {
        "credit_id": "5accce610e0a2631fa02ba95",
        "department": "Camera",
        "gender": 0,
        "id": 1561886,
        "job": "Still Photographer",
        "name": "Jonathan Prime",
        "profile_path": null
      },
      {
        "credit_id": "5acccf20925141433e02aaa5",
        "department": "Art",
        "gender": 1,
        "id": 20586,
        "job": "Set Designer",
        "name": "Stella Vaccaro",
        "profile_path": null
      },
      {
        "credit_id": "5acccf350e0a2631e702d426",
        "department": "Art",
        "gender": 0,
        "id": 2020371,
        "job": "Set Dresser",
        "name": "Tom Curtis",
        "profile_path": null
      },
      {
        "credit_id": "5acccf47c3a3687e9502b904",
        "department": "Art",
        "gender": 0,
        "id": 1722168,
        "job": "Set Dresser",
        "name": "Julie DeRose",
        "profile_path": null
      },
      {
        "credit_id": "5acccf5c0e0a267f9700fa85",
        "department": "Art",
        "gender": 0,
        "id": 2020373,
        "job": "Set Dresser",
        "name": "Derrick Kaupiko",
        "profile_path": null
      },
      {
        "credit_id": "5acccf70c3a3687e48030a92",
        "department": "Art",
        "gender": 0,
        "id": 2020375,
        "job": "Set Dresser",
        "name": "Craig K. Lewis",
        "profile_path": null
      },
      {
        "credit_id": "5acccf9d0e0a2631f702ba73",
        "department": "Art",
        "gender": 0,
        "id": 1599366,
        "job": "Set Dresser",
        "name": "Hale Mawae",
        "profile_path": null
      },
      {
        "credit_id": "5acccfb1c3a368674c00dacf",
        "department": "Art",
        "gender": 0,
        "id": 2020378,
        "job": "Set Dresser",
        "name": "Johanne Mitchell",
        "profile_path": null
      },
      {
        "credit_id": "5acccfe70e0a267f9a00d6c3",
        "department": "Art",
        "gender": 0,
        "id": 1146953,
        "job": "Set Dresser",
        "name": "Justin Powers",
        "profile_path": null
      },
      {
        "credit_id": "5accd0029251414341029e52",
        "department": "Art",
        "gender": 0,
        "id": 2020383,
        "job": "Set Dresser",
        "name": "Richard Ruhe",
        "profile_path": null
      },
      {
        "credit_id": "5accd017925141433e02abd4",
        "department": "Art",
        "gender": 2,
        "id": 1463383,
        "job": "Set Dresser",
        "name": "Christopher J. Wood",
        "profile_path": null
      },
      {
        "credit_id": "5accd0b89251414341029f30",
        "department": "Visual Effects",
        "gender": 0,
        "id": 1948290,
        "job": "Lead Animator",
        "name": "Ted Lister",
        "profile_path": null
      },
      {
        "credit_id": "5accd0dcc3a3687e0e029fda",
        "department": "Production",
        "gender": 1,
        "id": 64449,
        "job": "ADR Voice Casting",
        "name": "Holly Dorff",
        "profile_path": "/90CsT8F67gH2uQIVppIBMXm7qvf.jpg"
      },
      {
        "credit_id": "5accd0f19251414341029f6d",
        "department": "Production",
        "gender": 0,
        "id": 1599066,
        "job": "Casting Associate",
        "name": "Judith Sunga",
        "profile_path": null
      },
      {
        "credit_id": "5accd1019251414341029f7e",
        "department": "Production",
        "gender": 0,
        "id": 1533490,
        "job": "Casting Associate",
        "name": "Martin Ware",
        "profile_path": null
      },
      {
        "credit_id": "5accd1190e0a267f9700fd37",
        "department": "Production",
        "gender": 0,
        "id": 2017271,
        "job": "Casting Associate",
        "name": "Karen Woods",
        "profile_path": null
      },
      {
        "credit_id": "5accd1639251410c0300d35f",
        "department": "Crew",
        "gender": 0,
        "id": 1950115,
        "job": "Aerial Coordinator",
        "name": "Mike Woodley",
        "profile_path": null
      },
      {
        "credit_id": "5accd1769251410c3900d55b",
        "department": "Crew",
        "gender": 0,
        "id": 2020397,
        "job": "Armorer",
        "name": "Christopher Atherton",
        "profile_path": null
      },
      {
        "credit_id": "5accd19e0e0a2631cc02e0b5",
        "department": "Crew",
        "gender": 0,
        "id": 1854359,
        "job": "Marine Coordinator",
        "name": "Daren Bailey",
        "profile_path": null
      },
      {
        "credit_id": "5accd1ae9251410c3900d5a0",
        "department": "Crew",
        "gender": 0,
        "id": 1759739,
        "job": "Marine Coordinator",
        "name": "Daniel F. Malone",
        "profile_path": null
      },
      {
        "credit_id": "5accd1c5c3a368674c00dd61",
        "department": "Directing",
        "gender": 0,
        "id": 1404875,
        "job": "Script Supervisor",
        "name": "Jo Beckett",
        "profile_path": null
      },
      {
        "credit_id": "5accd1d59251410c3900d5d1",
        "department": "Directing",
        "gender": 0,
        "id": 1753238,
        "job": "Script Supervisor",
        "name": "Erin Mast",
        "profile_path": null
      },
      {
        "credit_id": "5accd1e59251410c4800d96f",
        "department": "Directing",
        "gender": 0,
        "id": 1411144,
        "job": "Script Supervisor",
        "name": "Rebecca Sheridan",
        "profile_path": null
      },
      {
        "credit_id": "5accd1f40e0a2631fa02c01c",
        "department": "Directing",
        "gender": 0,
        "id": 1752585,
        "job": "Script Supervisor",
        "name": "Claire Chang",
        "profile_path": null
      },
      {
        "credit_id": "5accd21a0e0a26320a02bf8a",
        "department": "Crew",
        "gender": 0,
        "id": 1938521,
        "job": "Unit Publicist",
        "name": "Katherine McCormack Wherry",
        "profile_path": null
      },
      {
        "credit_id": "5ace1067c3a3687e9504208d",
        "department": "Sound",
        "gender": 0,
        "id": 1459875,
        "job": "ADR Editor",
        "name": "Rachael Tate",
        "profile_path": null
      },
      {
        "credit_id": "5ace1080c3a3687e40042bb0",
        "department": "Sound",
        "gender": 1,
        "id": 1376899,
        "job": "Dialogue Editor",
        "name": "Cheryl Nardi",
        "profile_path": null
      },
      {
        "credit_id": "5ace10adc3a3687e27042edc",
        "department": "Sound",
        "gender": 0,
        "id": 8158,
        "job": "Dialogue Editor",
        "name": "Michael Silvers",
        "profile_path": null
      },
      {
        "credit_id": "5ace10c20e0a2631e7044d07",
        "department": "Sound",
        "gender": 0,
        "id": 1649532,
        "job": "Dialogue Editor",
        "name": "James Spencer",
        "profile_path": null
      },
      {
        "credit_id": "5ace10d70e0a2631e7044d1b",
        "department": "Sound",
        "gender": 0,
        "id": 8160,
        "job": "Foley",
        "name": "Dennie Thorpe",
        "profile_path": null
      },
      {
        "credit_id": "5ace10e80e0a2631a3045661",
        "department": "Sound",
        "gender": 0,
        "id": 8163,
        "job": "Foley",
        "name": "Jana Vance",
        "profile_path": null
      },
      {
        "credit_id": "5ace11169251410c03022556",
        "department": "Sound",
        "gender": 0,
        "id": 1411522,
        "job": "Foley",
        "name": "Luke Dunn Gielmuda",
        "profile_path": null
      },
      {
        "credit_id": "5ace11289251415a4500ccc8",
        "department": "Sound",
        "gender": 2,
        "id": 1658887,
        "job": "Foley Editor",
        "name": "Dmitri Makarov",
        "profile_path": null
      },
      {
        "credit_id": "5ace113a0e0a26320a04237b",
        "department": "Sound",
        "gender": 2,
        "id": 1463393,
        "job": "Foley Editor",
        "name": "Chris Manning",
        "profile_path": "/w1wopJzae0DqkK3HJTIhwrgJ0Im.jpg"
      },
      {
        "credit_id": "5ace1152c3a3687e950421f7",
        "department": "Sound",
        "gender": 2,
        "id": 1405362,
        "job": "Sound Designer",
        "name": "Oriol Tarragó",
        "profile_path": "/AqEAl6lspuKIB9zwbQon31XjPbK.jpg"
      },
      {
        "credit_id": "5ace1170c3a3687e4804a539",
        "department": "Sound",
        "gender": 0,
        "id": 1805391,
        "job": "Sound Effects Editor",
        "name": "Martí Albert",
        "profile_path": null
      },
      {
        "credit_id": "5ace1185c3a3687e4804a557",
        "department": "Sound",
        "gender": 2,
        "id": 1543231,
        "job": "Sound Effects Editor",
        "name": "Christopher Barnett",
        "profile_path": "/9AZztqeFFTYjkUouPrtdqNUVnEr.jpg"
      },
      {
        "credit_id": "5ace11989251410c060220d6",
        "department": "Sound",
        "gender": 2,
        "id": 1463387,
        "job": "Sound Effects Editor",
        "name": "Benjamin A. Burtt",
        "profile_path": null
      },
      {
        "credit_id": "5ace11abc3a3687e40042d5c",
        "department": "Sound",
        "gender": 0,
        "id": 1414178,
        "job": "Sound Effects Editor",
        "name": "Scott Guitteau",
        "profile_path": null
      },
      {
        "credit_id": "5ace11ccc3a3687e9504228f",
        "department": "Sound",
        "gender": 0,
        "id": 900,
        "job": "Sound Re-Recording Mixer",
        "name": "Christopher Boyes",
        "profile_path": "/qPYrAJif2AYqgUckgE9bEkjrdVw.jpg"
      },
      {
        "credit_id": "5ace11e49251410bda021ffa",
        "department": "Sound",
        "gender": 2,
        "id": 15894,
        "job": "Sound Re-Recording Mixer",
        "name": "Tom Myers",
        "profile_path": null
      },
      {
        "credit_id": "5ace11f89251410bda02200b",
        "department": "Sound",
        "gender": 2,
        "id": 1416386,
        "job": "Sound Re-Recording Mixer",
        "name": "Pete Horner",
        "profile_path": null
      },
      {
        "credit_id": "5ace120f0e0a26320a04246c",
        "department": "Sound",
        "gender": 0,
        "id": 2020958,
        "job": "Sound Recordist",
        "name": "Raemond Cook",
        "profile_path": null
      },
      {
        "credit_id": "5ace124c0e0a2631cc04552c",
        "department": "Sound",
        "gender": 0,
        "id": 1376902,
        "job": "Supervising Sound Editor",
        "name": "Gwendolyn Yates Whittle",
        "profile_path": null
      },
      {
        "credit_id": "5ace12699251410c39023051",
        "department": "Sound",
        "gender": 2,
        "id": 2216,
        "job": "Sound Designer",
        "name": "Gary Rydstrom",
        "profile_path": "/jZpr1nVfO7lldWI0YtmP1FGw7Rj.jpg"
      },
      {
        "credit_id": "5ace127bc3a3687e4804a724",
        "department": "Sound",
        "gender": 0,
        "id": 1422411,
        "job": "Sound Designer",
        "name": "Al Nelson",
        "profile_path": null
      },
      {
        "credit_id": "5ace12ec9251410c06022278",
        "department": "Crew",
        "gender": 0,
        "id": 2019535,
        "job": "Animatronics Designer",
        "name": "Giles Hannagan",
        "profile_path": null
      },
      {
        "credit_id": "5ace133dc3a3687e0e03f721",
        "department": "Crew",
        "gender": 0,
        "id": 1424925,
        "job": "Animatronics Designer",
        "name": "Peter Hawkins",
        "profile_path": null
      },
      {
        "credit_id": "5ace1363c3a3687e0e03f73e",
        "department": "Crew",
        "gender": 0,
        "id": 2019541,
        "job": "Animatronics Designer",
        "name": "Alan Murphy",
        "profile_path": null
      },
      {
        "credit_id": "5ace13769251410c03022899",
        "department": "Crew",
        "gender": 0,
        "id": 2020965,
        "job": "Animatronics Designer",
        "name": "Andy Colquhoun",
        "profile_path": null
      },
      {
        "credit_id": "5ace13a4c3a3687e0e03f77d",
        "department": "Crew",
        "gender": 0,
        "id": 2020966,
        "job": "Animatronics Designer",
        "name": "Nick Martin",
        "profile_path": null
      },
      {
        "credit_id": "5ace13b9925141434103f798",
        "department": "Crew",
        "gender": 0,
        "id": 1821892,
        "job": "Pyrotechnician",
        "name": "Skylar Gorrell",
        "profile_path": null
      },
      {
        "credit_id": "5ace13d6925141434103f7b0",
        "department": "Crew",
        "gender": 0,
        "id": 1720806,
        "job": "Special Effects Coordinator",
        "name": "Adam Heinis",
        "profile_path": null
      },
      {
        "credit_id": "5ace13fe0e0a267f9a0241b2",
        "department": "Visual Effects",
        "gender": 0,
        "id": 1463422,
        "job": "Special Effects Supervisor",
        "name": "Michael Meinardus",
        "profile_path": null
      },
      {
        "credit_id": "5ace146ac3a3687e27043440",
        "department": "Visual Effects",
        "gender": 0,
        "id": 2020967,
        "job": "2D Supervisor",
        "name": "Giorgio Pitino",
        "profile_path": null
      },
      {
        "credit_id": "5ace149f9251410bda0222f1",
        "department": "Visual Effects",
        "gender": 0,
        "id": 1756291,
        "job": "3D Generalist",
        "name": "Tom Cowlishaw",
        "profile_path": null
      },
      {
        "credit_id": "5ace14b60e0a2631a3045c05",
        "department": "Visual Effects",
        "gender": 0,
        "id": 2020968,
        "job": "3D Generalist",
        "name": "Sergio Garcia Poderoso",
        "profile_path": null
      },
      {
        "credit_id": "5ace14e8c3a368674c024b87",
        "department": "Visual Effects",
        "gender": 0,
        "id": 2020969,
        "job": "Animation Director",
        "name": "Jance Rubinchik",
        "profile_path": null
      },
      {
        "credit_id": "5ace15060e0a2631fa042e45",
        "department": "Visual Effects",
        "gender": 0,
        "id": 2020970,
        "job": "Animation Director",
        "name": "Glen McIntosh",
        "profile_path": null
      },
      {
        "credit_id": "5ace151c9251410c0602245f",
        "department": "Visual Effects",
        "gender": 0,
        "id": 1482841,
        "job": "Animation Supervisor",
        "name": "Stephen Aplin",
        "profile_path": null
      },
      {
        "credit_id": "5ace15710e0a267f97029c5f",
        "department": "Visual Effects",
        "gender": 0,
        "id": 2020971,
        "job": "Creature Technical Director",
        "name": "Fabio Siino",
        "profile_path": null
      },
      {
        "credit_id": "5ace15819251410c390233c9",
        "department": "Visual Effects",
        "gender": 0,
        "id": 2020972,
        "job": "Creature Technical Director",
        "name": "Cantatore Vittorio",
        "profile_path": null
      },
      {
        "credit_id": "5ace15929251410c03022a70",
        "department": "Visual Effects",
        "gender": 0,
        "id": 1948286,
        "job": "Creature Technical Director",
        "name": "Nora Wixom",
        "profile_path": null
      },
      {
        "credit_id": "5ace15e70e0a267f97029d10",
        "department": "Visual Effects",
        "gender": 0,
        "id": 2020973,
        "job": "Creature Technical Director",
        "name": "Andre Metello",
        "profile_path": null
      },
      {
        "credit_id": "5ace16069251415a6d00deaf",
        "department": "Visual Effects",
        "gender": 0,
        "id": 1550760,
        "job": "Lead Animator",
        "name": "Marc Calvelo",
        "profile_path": null
      },
      {
        "credit_id": "5ace1619c3a368674c024ce3",
        "department": "Visual Effects",
        "gender": 0,
        "id": 1454755,
        "job": "Lead Animator",
        "name": "Tom St. Amand",
        "profile_path": null
      },
      {
        "credit_id": "5ace1656c3a36834de09b291",
        "department": "Visual Effects",
        "gender": 0,
        "id": 2020975,
        "job": "Pre-Visualization Supervisor",
        "name": "Pawl Fulker",
        "profile_path": null
      },
      {
        "credit_id": "5ace16eac3a3687e950428e0",
        "department": "Crew",
        "gender": 0,
        "id": 2020353,
        "job": "Visual Effects Art Director",
        "name": "Jama Jurabaev",
        "profile_path": null
      },
      {
        "credit_id": "5ace170c9251410c480241db",
        "department": "Visual Effects",
        "gender": 0,
        "id": 1770982,
        "job": "VFX Editor",
        "name": "Magdalena Turnier",
        "profile_path": null
      },
      {
        "credit_id": "5ace17270e0a267f9a02449c",
        "department": "Visual Effects",
        "gender": 0,
        "id": 2020977,
        "job": "VFX Production Coordinator",
        "name": "Keith Anthony-Brown",
        "profile_path": null
      },
      {
        "credit_id": "5ace173a9251410c4802420d",
        "department": "Visual Effects",
        "gender": 0,
        "id": 1548961,
        "job": "VFX Supervisor",
        "name": "James D. Fleming",
        "profile_path": null
      },
      {
        "credit_id": "5ace1750c3a3687e9504294c",
        "department": "Visual Effects",
        "gender": 0,
        "id": 1551911,
        "job": "VFX Supervisor",
        "name": "Alex Wuttke",
        "profile_path": null
      },
      {
        "credit_id": "5ace17640e0a26320a042a9f",
        "department": "Visual Effects",
        "gender": 0,
        "id": 1725774,
        "job": "VFX Supervisor",
        "name": "Alex Wang",
        "profile_path": null
      },
      {
        "credit_id": "5ace1777c3a3687e4804ad59",
        "department": "Visual Effects",
        "gender": 0,
        "id": 1545929,
        "job": "VFX Supervisor",
        "name": "Oliver Cubbage",
        "profile_path": null
      },
      {
        "credit_id": "5ace1796925141434103fb0c",
        "department": "Visual Effects",
        "gender": 0,
        "id": 2020979,
        "job": "Visual Effects Coordinator",
        "name": "Amandine Gutierrez",
        "profile_path": null
      },
      {
        "credit_id": "5ace17aa0e0a2631e704556c",
        "department": "Visual Effects",
        "gender": 0,
        "id": 2020980,
        "job": "Visual Effects Coordinator",
        "name": "Lane Howard",
        "profile_path": null
      },
      {
        "credit_id": "5ace17c50e0a26320a042b03",
        "department": "Visual Effects",
        "gender": 0,
        "id": 2020982,
        "job": "Visual Effects Coordinator",
        "name": "Lisa Wakeley",
        "profile_path": null
      },
      {
        "credit_id": "5ace17d89251415a6d00e0a2",
        "department": "Visual Effects",
        "gender": 0,
        "id": 2020983,
        "job": "Visual Effects Coordinator",
        "name": "Lilles Whitby",
        "profile_path": null
      },
      {
        "credit_id": "5ace17ef0e0a267f97029f82",
        "department": "Visual Effects",
        "gender": 0,
        "id": 1770984,
        "job": "Visual Effects Coordinator",
        "name": "Lila Sara Tahri",
        "profile_path": null
      },
      {
        "credit_id": "5ace18080e0a2631cc045b5b",
        "department": "Visual Effects",
        "gender": 0,
        "id": 2020985,
        "job": "Visual Effects Coordinator",
        "name": "Hannah Johnson",
        "profile_path": null
      },
      {
        "credit_id": "5ace181d9251410c03022cdb",
        "department": "Crew",
        "gender": 0,
        "id": 1574092,
        "job": "Visual Effects Editor",
        "name": "Tom Balogh",
        "profile_path": null
      },
      {
        "credit_id": "5ace182f0e0a2631cc045b79",
        "department": "Crew",
        "gender": 0,
        "id": 1396802,
        "job": "Visual Effects Editor",
        "name": "Zack Mazerolle",
        "profile_path": null
      },
      {
        "credit_id": "5ace18440e0a2631e704565a",
        "department": "Crew",
        "gender": 0,
        "id": 1459911,
        "job": "Visual Effects Editor",
        "name": "Mark S. Wright",
        "profile_path": null
      },
      {
        "credit_id": "5ace185d0e0a2631fa043216",
        "department": "Crew",
        "gender": 0,
        "id": 1632350,
        "job": "Visual Effects Editor",
        "name": "Sam Paul Toms",
        "profile_path": null
      },
      {
        "credit_id": "5ace1874c3a3687e40043526",
        "department": "Visual Effects",
        "gender": 0,
        "id": 1408379,
        "job": "Visual Effects Producer",
        "name": "Daniel Barrow",
        "profile_path": null
      },
      {
        "credit_id": "5ace18890e0a267f9702a01d",
        "department": "Visual Effects",
        "gender": 0,
        "id": 2020989,
        "job": "Visual Effects Producer",
        "name": "Kathryn Horton",
        "profile_path": null
      },
      {
        "credit_id": "5ace189e0e0a2631a304608f",
        "department": "Visual Effects",
        "gender": 0,
        "id": 2020990,
        "job": "Visual Effects Producer",
        "name": "Josh Sykes",
        "profile_path": null
      },
      {
        "credit_id": "5ace18d1c3a3687e4804af58",
        "department": "Visual Effects",
        "gender": 0,
        "id": 1408383,
        "job": "Visual Effects Supervisor",
        "name": "Adam Rowland",
        "profile_path": null
      },
      {
        "credit_id": "5ace18e5c3a3687e40043599",
        "department": "Visual Effects",
        "gender": 0,
        "id": 1411533,
        "job": "Visual Effects Supervisor",
        "name": "David Vickery",
        "profile_path": null
      },
      {
        "credit_id": "5ace18fa0e0a267f9a0246ae",
        "department": "Visual Effects",
        "gender": 0,
        "id": 1410554,
        "job": "Visual Effects Supervisor",
        "name": "Dave Morley",
        "profile_path": null
      },
      {
        "credit_id": "5ace19100e0a2631fa043324",
        "department": "Visual Effects",
        "gender": 0,
        "id": 1605739,
        "job": "Visual Effects Supervisor",
        "name": "Nicholas Hurst",
        "profile_path": null
      },
      {
        "credit_id": "5ace195a0e0a2631cc045d1a",
        "department": "Costume & Make-Up",
        "gender": 0,
        "id": 1819542,
        "job": "Assistant Costume Designer",
        "name": "Poli Kyriacou",
        "profile_path": null
      },
      {
        "credit_id": "5ace196d0e0a2631fa0433ab",
        "department": "Costume & Make-Up",
        "gender": 0,
        "id": 2020992,
        "job": "Assistant Costume Designer",
        "name": "Sophie Canale",
        "profile_path": null
      },
      {
        "credit_id": "5ace197f0e0a267f9a02477a",
        "department": "Costume & Make-Up",
        "gender": 0,
        "id": 1819543,
        "job": "Costume Coordinator",
        "name": "Robin Jiro Hall",
        "profile_path": null
      },
      {
        "credit_id": "5ace1994c3a3687e4804b056",
        "department": "Costume & Make-Up",
        "gender": 0,
        "id": 1319752,
        "job": "Costume Supervisor",
        "name": "Nicole Young",
        "profile_path": null
      },
      {
        "credit_id": "5ace19a69251410c06022983",
        "department": "Costume & Make-Up",
        "gender": 0,
        "id": 1319744,
        "job": "Costume Supervisor",
        "name": "Linda Matthews",
        "profile_path": null
      },
      {
        "credit_id": "5ace19bc9251410c4802451a",
        "department": "Costume & Make-Up",
        "gender": 0,
        "id": 1755690,
        "job": "Key Costumer",
        "name": "Jimmy Jay",
        "profile_path": null
      },
      {
        "credit_id": "5ace1a16c3a3687e27043b79",
        "department": "Costume & Make-Up",
        "gender": 0,
        "id": 2020993,
        "job": "Set Costumer",
        "name": "Erika K. Aresta",
        "profile_path": null
      },
      {
        "credit_id": "5ace1a450e0a2631cc045e63",
        "department": "Costume & Make-Up",
        "gender": 1,
        "id": 1594001,
        "job": "Set Costumer",
        "name": "Cesha Ventre",
        "profile_path": null
      },
      {
        "credit_id": "5ace1a570e0a2631e7045918",
        "department": "Costume & Make-Up",
        "gender": 0,
        "id": 2020994,
        "job": "Wardrobe Supervisor",
        "name": "Tom Hornsby",
        "profile_path": null
      },
      {
        "credit_id": "5ace1a8b9251410c390239fc",
        "department": "Editing",
        "gender": 0,
        "id": 1813761,
        "job": "Assistant Editor",
        "name": "Luke Clare",
        "profile_path": null
      },
      {
        "credit_id": "5ace1a9f0e0a267f9a0248f4",
        "department": "Editing",
        "gender": 0,
        "id": 2020995,
        "job": "Assistant Editor",
        "name": "Carlo Milillo",
        "profile_path": null
      },
      {
        "credit_id": "5ace1ab5c3a3687e0e03fecd",
        "department": "Editing",
        "gender": 0,
        "id": 2020996,
        "job": "Assistant Editor",
        "name": "Jeremy Richardson",
        "profile_path": null
      },
      {
        "credit_id": "5ace1aca9251410c48024699",
        "department": "Editing",
        "gender": 0,
        "id": 1918474,
        "job": "Digital Intermediate",
        "name": "Lawrence Hook",
        "profile_path": null
      },
      {
        "credit_id": "5ace1adac3a3687e95042da6",
        "department": "Editing",
        "gender": 0,
        "id": 62723,
        "job": "Digital Intermediate",
        "name": "Stefan Sonnenfeld",
        "profile_path": null
      },
      {
        "credit_id": "5ace1aed0e0a2631cc045f5d",
        "department": "Editing",
        "gender": 0,
        "id": 1437656,
        "job": "Digital Intermediate",
        "name": "Shaun Richards",
        "profile_path": null
      },
      {
        "credit_id": "5ace1b029251410c03023059",
        "department": "Editing",
        "gender": 0,
        "id": 1715585,
        "job": "First Assistant Editor",
        "name": "Tom Davis",
        "profile_path": null
      },
      {
        "credit_id": "5ad753c80e0a2674be00e125",
        "department": "Sound",
        "gender": 0,
        "id": 1536974,
        "job": "Dialogue Editor",
        "name": "Will Ralston",
        "profile_path": null
      }
    ]
  },
  "keywords": {
    "keywords": [
      {
        "id": 1720,
        "name": "tyrannosaurus rex"
      },
      {
        "id": 3347,
        "name": "volcano"
      },
      {
        "id": 9663,
        "name": "sequel"
      },
      {
        "id": 11107,
        "name": "rescue mission"
      },
      {
        "id": 11338,
        "name": "wild animal"
      },
      {
        "id": 12616,
        "name": "dinosaur"
      },
      {
        "id": 163561,
        "name": "genetic engineering"
      },
      {
        "id": 166958,
        "name": "prehistoric creature"
      },
      {
        "id": 179430,
        "name": "aftercreditsstinger"
      },
      {
        "id": 224587,
        "name": "monster island"
      }
    ]
  },
  "similar_movies": {
    "page": 1,
    "results": [
      {
        "adult": false,
        "backdrop_path": "/tBMh4ig85nU6EC57pXhWfosSGlW.jpg",
        "genre_ids": [
          28,
          12,
          35,
          878,
          10751
        ],
        "id": 88751,
        "original_language": "en",
        "original_title": "Journey to the Center of the Earth",
        "overview": "Personne ne croit plus le professeur Trevor Anderson lorsqu'il affirme être sur le point de faire une extraordinaire découverte. Ses hypothèses révolutionnaires l'ont mis au ban de la communauté scientifique. Pourtant, au cours d'une expédition en Islande, Trevor et son neveu, le jeune Sean, sous la conduite de leur guide islandaise Hannah, vont se retrouver plongés dans l'inconnu. Dans leur périple vers les profondeurs de la Terre, ils rencontreront des mondes inexplorés, des merveilles extraordinaires, des dangers mortels et des créatures fabuleuses... Une seule chose est certaine : à 6 km sous la surface, tout peut arriver.",
        "poster_path": "/pEfrZXBh1SjjukSwzOqk3ZxgMyM.jpg",
        "release_date": "2008-07-10",
        "title": "Voyage au centre de la Terre",
        "video": false,
        "vote_average": 5.8,
        "vote_count": 2075,
        "popularity": 13.056
      },
      {
        "adult": false,
        "backdrop_path": "/8LZ0r7r2SdJIApRvGo2k6CXHq8x.jpg",
        "genre_ids": [
          12,
          878
        ],
        "id": 329,
        "original_language": "en",
        "original_title": "Jurassic Park",
        "overview": "Ne pas réveiller le chat qui dort... C'est ce que le milliardaire John Hammond aurait dû se rappeler avant de se lancer dans le \"clonage\" de dinosaures. C'est à partir d'une goutte de sang absorbée par un moustique fossilisé que John Hammond et son équipe ont réussi à faire renaître une dizaine d'espèces de dinosaures. Il s'apprête maintenant avec la complicité du docteur Alan Grant, paléontologue de renom, et de son amie Ellie, à ouvrir le plus grand parc à thème du monde. Mais c'était sans compter la cupidité et la malveillance de l'informaticien Dennis Nedry, et éventuellement des dinosaures, seuls maîtres sur l'île...",
        "poster_path": "/g5wIUeX9LfFtkErJ4k9AxPnNsuY.jpg",
        "release_date": "1993-06-11",
        "title": "Jurassic Park",
        "video": false,
        "vote_average": 7.8,
        "vote_count": 7151,
        "popularity": 11.444
      },
      {
        "adult": false,
        "backdrop_path": "/oDqbewoFuIEWA7UWurole6MzDGn.jpg",
        "genre_ids": [
          12,
          16,
          35,
          10751
        ],
        "id": 425,
        "original_language": "en",
        "original_title": "Ice Age",
        "overview": "Vingt mille ans avant notre ère, lorsque Scrat, un rongeur obstiné, fend la banquise et déclenche un nouvel Âge de Glace, une vaste cohorte de mammifères s'assemble et commence à émigrer vers le sud. Manny, un mammouth solitaire qui n'en fait qu'à sa tête, choisit d'aller vers le nord et se voit bientôt rejoint par Sid, un petit paresseux volubile en quête de protecteur. Ce dernier l'oblige bientôt à recueillir un bébé humain, Roshan, que sa mère leur a confié avant de mourir, et à ramener celui-ci à son père, chasseur nomade parti vers le nord. Sur leur chemin, les deux compères devront protéger Roshan de Diego, un tigre aux dents de sabre chargé par son chef Soto de capturer le bébé.",
        "poster_path": "/vrxktwHSlGRbm2V86wf5k5JvafI.jpg",
        "release_date": "2002-03-10",
        "title": "L'Âge de glace",
        "video": false,
        "vote_average": 7.2,
        "vote_count": 5921,
        "popularity": 16.857
      },
      {
        "adult": false,
        "backdrop_path": "/t5KONotASgVKq4N19RyhIthWOPG.jpg",
        "genre_ids": [
          28,
          12,
          878,
          53
        ],
        "id": 135397,
        "original_language": "en",
        "original_title": "Jurassic World",
        "overview": "Après le décès de son fondateur John Hammond, la société de biotechnologie InGen a été rachetée par Simon Masrani, PDG de la Masrani Global Corporation1.  Deux décennies après les événements tragiques de 1993, un nouveau parc a ouvert ses portes sur Isla Nublar, au large du Costa Rica. C'est plus de vingt mille visiteurs qui débarquent chaque jour à « Jurassic World », le « plus grand parc à thèmes jamais construit dans l'histoire humaine » pour profiter pleinement du cadre idyllique de l'île et de ses attractions. Les scientifiques de la réserve biologique, sous la direction du Dr Henry Wu, étudient le comportement des animaux, des dinosaures vivants recréés à partir de leur ADN fossilisé dans de lʼambre. Mais alors que tout le monde croyait les leçons du passé assimilées, un nouvel incident éclate...",
        "poster_path": "/aTxRptK9fG3a0Tmcym3h4LXFOlm.jpg",
        "release_date": "2015-06-06",
        "title": "Jurassic World",
        "video": false,
        "vote_average": 6.6,
        "vote_count": 11908,
        "popularity": 23.569
      },
      {
        "adult": false,
        "backdrop_path": "/t9svFw203MlNfgWb62HEHsrUxTt.jpg",
        "genre_ids": [
          12,
          16,
          10751
        ],
        "id": 12144,
        "original_language": "en",
        "original_title": "The Land Before Time",
        "overview": "Bien avant l'apparition de l'homme sur la Terre vivait une paisible race de dinosaures végétariens et pacifiques, les \"mangeurs de feuilles\". Mais quand la sécheresse ne les contraignait pas à l'exode, les terribles \"dents tranchantes\", une espèce de dinosaures carnivores, les attaquaient. Un seul espoir pour sauvegarder la race, rejoindre la vallée des merveilles, où la verdure est abondante.C'est là que commence l'histoire de Petit-Pied, un dinosaure appartenant à la famille des \"longs cous\" et séparé de ses parents, suite à un séisme. Au cours de son périple, il est épaulé par d'autres espèces reptiliennes : Cera, une \"trois cornes\", Ducky, un \"grande bouche\", Petrie, un \"volant\", et Spike, un \"queue à pointes\".",
        "poster_path": "/gYH8SIm3iYgok79MI2mgs3Acm1q.jpg",
        "release_date": "1988-11-18",
        "title": "Le Petit Dinosaure et la Vallée des merveilles",
        "video": false,
        "vote_average": 7,
        "vote_count": 1013,
        "popularity": 11.912
      },
      {
        "adult": false,
        "backdrop_path": "/pDuD96Fz0ZZXf9buEvRu1UQsmFT.jpg",
        "genre_ids": [
          12,
          16,
          10751
        ],
        "id": 105864,
        "original_language": "en",
        "original_title": "The Good Dinosaur",
        "overview": "Et si la catastrophe cataclysmique qui a bouleversé la Terre et provoqué l'extinction des dinosaures n'avait jamais eu lieu ? Et si les dinosaures ne s'étaient jamais éteints, et vivaient parmi nous de nos jours ?  Arlo, jeune Apatosaure au grand cœur, maladroit et craintif, qui va faire la rencontre et prendre sous son aile un étonnant compagnon : un petit garçon sauvage, très dégourdi, prénommé Spot.",
        "poster_path": "/4gRFkPJlNMVHxksQS5Kt4AA22I1.jpg",
        "release_date": "2015-11-14",
        "title": "Le Voyage d'Arlo",
        "video": false,
        "vote_average": 6.7,
        "vote_count": 2529,
        "popularity": 11.564
      },
      {
        "adult": false,
        "backdrop_path": "/uvhux2cx774nhbFDmO0NgTHBgEH.jpg",
        "genre_ids": [
          12,
          16,
          10751
        ],
        "id": 15997,
        "original_language": "en",
        "original_title": "The Land Before Time II: The Great Valley Adventure",
        "overview": "Alors qu'ils pourchassent deux voleurs d'oeufs, Petit-Pied et ses amis créent une ouverture dans la vallée, laissant entrer deux Dents-Tranchantes...",
        "poster_path": "/5iJu7eWTgtF7NypFyhcrXiZ38e5.jpg",
        "release_date": "1994-12-12",
        "title": "Le Petit Dinosaure : Petit-Pied et son nouvel ami",
        "video": false,
        "vote_average": 6.1,
        "vote_count": 201,
        "popularity": 7.833
      },
      {
        "adult": false,
        "backdrop_path": "/LT2796bodQIvIV50KcyrsIkq6r.jpg",
        "genre_ids": [
          16,
          10751
        ],
        "id": 10567,
        "original_language": "en",
        "original_title": "Dinosaur",
        "overview": "La Terre, il y a soixante-cinq millions d'années. Une colonie de lémuriens menant une existence paisible sur une île paradisiaque découvre par hasard un oeuf de dinosaure. Lorsque la coquille se fissure, c'est un petit iguanodon qui en sort... Les lémuriens le recueillent et le baptisent Aladar. Celui-ci grandit parmi eux, jusqu'au jour où une météorite détruit l'île et contraint tout le monde à l'éxil. Ils trouvent refuge auprès d'un groupe de dinosaures voyageant à la recherche de la terre des Nids. Très vite, Aladar se heurte a Kron, l'impitoyable chef...",
        "poster_path": "/djiHQOcxU09cYVfoCFjtfwU65Al.jpg",
        "release_date": "2000-05-19",
        "title": "Dinosaure",
        "video": false,
        "vote_average": 6.4,
        "vote_count": 881,
        "popularity": 10.952
      },
      {
        "id": 18890,
        "video": false,
        "vote_count": 162,
        "vote_average": 5.9,
        "title": "Les quatre dinosaures et le cirque magique",
        "release_date": "1993-11-24",
        "original_language": "en",
        "original_title": "We're Back! A Dinosaur's Story",
        "genre_ids": [
          16,
          878,
          10751
        ],
        "backdrop_path": "/jnKenz8ssVvJfzyGa4IiGDgBoJb.jpg",
        "adult": false,
        "overview": "De pacifiques dinosaures sont convoités par le diabolique professeur Mauvais-Œil qui veut en faire l'attraction vedette de son cirque excentrique. Mais deux gamins des rues, Louie et Cecilia, veillent sur les doux monstres...",
        "poster_path": "/8pwePQCOHjyU8DBTNGjsshRZTjV.jpg",
        "popularity": 5.797
      },
      {
        "adult": false,
        "backdrop_path": "/djrr3n1XTnVNf6F3ZqvTtYWXgjm.jpg",
        "genre_ids": [
          12,
          14,
          10751
        ],
        "id": 11571,
        "original_language": "en",
        "original_title": "Journey to the Center of the Earth",
        "overview": "À Édimbourg, en Écosse, en 1880, le professeur Oliver Lindenbrook (James Mason) lance une équipe scientifique sur les traces d’un explorateur islandais disparu lors d’une expédition dans le cratère d’un volcan, qui devait le mener au centre de la Terre...",
        "poster_path": "/12HlZf6SzhqrhkqfW1PMmcdcz8J.jpg",
        "release_date": "1959-12-14",
        "title": "Voyage au centre de la Terre",
        "video": false,
        "vote_average": 6.9,
        "vote_count": 145,
        "popularity": 5.758
      },
      {
        "id": 27591,
        "video": false,
        "vote_count": 24,
        "vote_average": 5.4,
        "title": "Le continent oublié",
        "release_date": "1977-07-06",
        "original_language": "en",
        "original_title": "The People That Time Forgot",
        "genre_ids": [
          12,
          14,
          878
        ],
        "backdrop_path": "/d4v3uXpAiMzzI8cdhFyIQkmcg3f.jpg",
        "adult": false,
        "overview": "Le major Ben McBride met sur place une expédition qui part à la recherche d'un collègue disparu en Arctique. Une fois sur place, l'équipe découvre une oasis tropicale cachée au milieu de la glace ! Très vite, les dangers guettent et une armée d'hommes des cavernes et de dinosaures affamés se lancent en quête de chair fraîche.",
        "poster_path": "/do7izZ0v9OuFHsQ06wYA8mOT3a1.jpg",
        "popularity": 3.666
      },
      {
        "id": 16123,
        "video": false,
        "vote_count": 38,
        "vote_average": 3,
        "title": "Préhistoric",
        "release_date": "2008-07-29",
        "original_language": "en",
        "original_title": "100 Million BC",
        "genre_ids": [
          878
        ],
        "backdrop_path": "/cvooTwqS6Ps7aI9wd6HjepvVdlH.jpg",
        "adult": false,
        "overview": "Des scientifiques américains envoient quelques soldats dans le passé pour ce qui sera la première expérience de voyage dans le temps. Expédiés plusieurs millions d’années en arrière, ils se retrouvent face aux nombreuses créatures préhistoriques qui peuplaient la Terre à cette époque. De retour dans le présent, ils se rendent compte qu’ils ne sont pas seuls : l’expérience a dérapé, et le plus monstrueux des tueurs est désormais au coeur de Los Angeles…",
        "poster_path": "/356gQx76Lpx8OlJyWFQPJ3IE6qM.jpg",
        "popularity": 4.582
      },
      {
        "adult": false,
        "backdrop_path": "/rL4qTwE0j8CR7dV4pTHqhvwnB4B.jpg",
        "genre_ids": [
          28,
          878
        ],
        "id": 192813,
        "original_language": "en",
        "original_title": "Age of Dinosaurs",
        "overview": "Une découverte scientifique permet de faire revenir à la surface de la Terre des dinosaures. Mais l'expérience tourne à la catastrophe quand les prédateurs s'échappent pour se réfugier dans les rues de Los Angeles.",
        "poster_path": "/aBgJiyRUs3GeQx7xvVWEZPKN43M.jpg",
        "release_date": "2013-05-11",
        "title": "Age of Dinosaurs",
        "video": false,
        "vote_average": 3.9,
        "vote_count": 47,
        "popularity": 4.273
      },
      {
        "adult": false,
        "backdrop_path": "/xcR2tnxEaYHRE7xaS3PG7Knzxs2.jpg",
        "genre_ids": [
          12,
          16,
          10751
        ],
        "id": 339526,
        "original_language": "en",
        "original_title": "The Land Before Time XIV: Journey of the Brave",
        "overview": "Après que son père ne soit pas revenu d'un grand voyage, Petit-Pied et ses amis partent à sa recherche.",
        "poster_path": "/fRS2p2LG4skgnH9bJQlQUQoqdAh.jpg",
        "release_date": "2016-02-02",
        "title": "Le Petit Dinosaure 14 : L'Expédition Héroïque",
        "video": false,
        "vote_average": 6.7,
        "vote_count": 22,
        "popularity": 3.925
      },
      {
        "adult": false,
        "backdrop_path": "/zRPHqk1ivzpq4dto28WA4boPzo4.jpg",
        "genre_ids": [
          28,
          12,
          14,
          878
        ],
        "id": 45361,
        "original_language": "en",
        "original_title": "Journey to the Center of the Earth",
        "overview": "Un commando militaire testant un appareil de téléportation se retrouve sous terre suite à un problème technique. Les rescapées réalisent vite que la faune et la flore qui abritent les entrailles de la planète et que les créatures carnivores qui y vivent sont très agressives...",
        "poster_path": "/g5CNd52GoXQURR5GUV6xU4dpxLQ.jpg",
        "release_date": "2008-07-01",
        "title": "Voyage Au Centre De La Terre",
        "video": false,
        "vote_average": 3.8,
        "vote_count": 18,
        "popularity": 1.252
      },
      {
        "id": 2981,
        "video": false,
        "vote_count": 37,
        "vote_average": 6.8,
        "title": "Le monde perdu",
        "release_date": "1925-06-22",
        "original_language": "en",
        "original_title": "The Lost World",
        "genre_ids": [
          12,
          18,
          14,
          878
        ],
        "backdrop_path": "/6IzUKxChijsdfBLA6ruCAoDki8c.jpg",
        "adult": false,
        "overview": "Une expédition dirigée par le professeur Challenger quitte Londres pour le Brésil, dans le but de retrouver le Monde perdu, mentionné dans le journal de l'explorateur disparu Maple White. Cette expédition se compose du professeur Summerlee, de Sir John Roxton, du reporter Edward Malone et de Paula, la propre fille du professeur Maple White. Les voyageurs finissent par atteindre un mystérieux plateau dans la jungle amazonienne. Un spectacle fantastique s'offre à leurs yeux : cette contrée inconnue est demeurée comme aux premiers âges du monde, peuplée de dinosaures.",
        "poster_path": "/411VnWtYJdEFKiaGqJOeTmBv8th.jpg",
        "popularity": 3.061
      },
      {
        "id": 366141,
        "video": false,
        "vote_count": 34,
        "vote_average": 5.9,
        "title": "Cro Minion",
        "release_date": "2015-11-04",
        "original_language": "en",
        "original_title": "Minions: Cro Minion",
        "genre_ids": [
          16,
          10751
        ],
        "backdrop_path": "/taCWtbPrBNooPqavM9dktdPYtIj.jpg",
        "adult": false,
        "overview": "Deux minions doivent garder un petit bébé Néanderthal.",
        "poster_path": "/9SFFtelj7IPSfMUqVCsq03lcl3s.jpg",
        "popularity": 3.378
      },
      {
        "id": 3591,
        "video": false,
        "vote_count": 59,
        "vote_average": 5.7,
        "title": "Un million d'années avant J.C.",
        "release_date": "1966-11-28",
        "original_language": "en",
        "original_title": "One Million Years B.C.",
        "genre_ids": [
          28,
          12,
          14
        ],
        "backdrop_path": "/9DBa6qJgR7ACvXHK1C8HA3WsSH1.jpg",
        "adult": false,
        "overview": "L'homme préhistorique Tumak est banni de sa tribu. Sur sa route, il rencontre la belle Loana, qui décide de quitter elle aussi son clan pour l'accompagner sur sa route.",
        "poster_path": "/pBSlGOw6TseKn7h9l963vpCdqUY.jpg",
        "popularity": 2.769
      },
      {
        "adult": false,
        "backdrop_path": "/cLJMQ0igyeZlGJBhitaFSlpMyqq.jpg",
        "genre_ids": [
          12,
          14,
          878
        ],
        "id": 35002,
        "original_language": "en",
        "original_title": "When Dinosaurs Ruled the Earth",
        "overview": "Lors d'une cérémonie de sacrifice au Dieu Soleil, Sanna échappe à son sort en se jetant à la mer. Elle est recueillie par une tribu avec un homme dont elle tombe amoureuse : Tara. Mais la jalousie de l'ex-fiancée de celui-ci l'oblige de nouveau à fuir...",
        "poster_path": "/rsUIulht8CYjzQCrfTvWLdM8xuR.jpg",
        "release_date": "1970-10-25",
        "title": "Quand les dinosaures dominaient le monde",
        "video": false,
        "vote_average": 5.1,
        "vote_count": 25,
        "popularity": 1.771
      },
      {
        "adult": false,
        "backdrop_path": "/dNx2qHFrNCTTfjjBKxk4nRFEr7D.jpg",
        "genre_ids": [
          99
        ],
        "id": 249170,
        "original_language": "en",
        "original_title": "Dinosaur 13",
        "overview": "",
        "poster_path": "/AsrOWnf6YtZ0Xl8cTCLnpdwUpoj.jpg",
        "release_date": "2014-08-15",
        "title": "Dinosaur 13",
        "video": false,
        "vote_average": 6.9,
        "vote_count": 43,
        "popularity": 3.22
      }
    ],
    "total_pages": 3,
    "total_results": 47
  },
  "recommendations": {
    "page": 1,
    "results": [
      {
        "adult": false,
        "backdrop_path": "/6P3c80EOm7BodndGBUAJHHsHKrp.jpg",
        "genre_ids": [
          28,
          12,
          35,
          14,
          878
        ],
        "id": 363088,
        "original_language": "en",
        "original_title": "Ant-Man and the Wasp",
        "overview": "Après les événements survenus dans Captain America : Civil War, Scott Lang a bien du mal à concilier sa vie de super-héros et ses responsabilités de père. Mais ses réflexions sur les conséquences de ses choix tournent court lorsque Hope van Dyne et le Dr Hank Pym lui confient une nouvelle mission urgente… Scott va devoir renfiler son costume et apprendre à se battre aux côtés de La Guêpe afin de faire la lumière sur des secrets enfouis de longue date…",
        "poster_path": "/r3Vapr4sdXOhHBThTNtfuijKe5V.jpg",
        "release_date": "2018-07-04",
        "title": "Ant-Man et la Guêpe",
        "video": false,
        "vote_average": 7,
        "vote_count": 1626,
        "popularity": 74.646
      },
      {
        "adult": false,
        "backdrop_path": "/3P52oz9HPQWxcwHOwxtyrVV1LKi.jpg",
        "genre_ids": [
          28,
          35,
          878
        ],
        "id": 383498,
        "original_language": "en",
        "original_title": "Deadpool 2",
        "overview": "Deadpool se voit contraint de rejoindre les X-Men : après une tentative ratée de sauver un jeune mutant au pouvoir destructeur, il est jeté en prison anti-mutants. Arrive Cable, un soldat venant du futur et ayant pour cible le jeune mutant, en quête de vengeance. Deadpool décide de le combattre. Peu convaincu par les règles des X-Men, il crée sa propre équipe, la « X-Force ». Mais cette mission lui réservera de grosses surprises, des ennemis de taille et des alliés indispensables.",
        "poster_path": "/ybjooZMNlRBaFNfs52XqONc4Xyw.jpg",
        "release_date": "2018-05-15",
        "title": "Deadpool 2",
        "video": false,
        "vote_average": 7.5,
        "vote_count": 4099,
        "popularity": 208.133
      },
      {
        "adult": false,
        "backdrop_path": "/5a7lMDn3nAj2ByO0X1fg6BhUphR.jpg",
        "genre_ids": [
          12,
          14,
          878
        ],
        "id": 333339,
        "original_language": "en",
        "original_title": "Ready Player One",
        "overview": "En 2045, Le monde est au bord du chaos. Les êtres humains se réfugient dans l'OASIS, univers virtuel mis au point par le brillant et excentrique James Halliday. Avant de disparaître, celui-ci a décidé de léguer son immense fortune à quiconque découvrira l'œuf de Pâques numérique qu'il a pris soin de dissimuler dans l'OASIS. L'appât du gain provoque une compétition planétaire. Mais lorsqu'un jeune garçon, Wade Watts, qui n'a pourtant pas le profil d'un héros, décide de participer à la chasse au trésor, il est plongé dans un monde parallèle à la fois mystérieux et inquiétant…",
        "poster_path": "/832ngDVXhOVp6HBnuMMeeWTrGXN.jpg",
        "release_date": "2018-03-28",
        "title": "Ready Player One",
        "video": false,
        "vote_average": 7.7,
        "vote_count": 3757,
        "popularity": 68.62
      },
      {
        "adult": false,
        "backdrop_path": "/bOGkgRGdhrBYJSLpXaxhXVstddV.jpg",
        "genre_ids": [
          28,
          12,
          14,
          878
        ],
        "id": 299536,
        "original_language": "en",
        "original_title": "Avengers: Infinity War",
        "overview": "Les Avengers et leurs alliés devront être prêts à tout sacrifier pour neutraliser le redoutable Thanos avant que son attaque éclair ne conduise à la destruction complète de l’univers.",
        "poster_path": "/iYQQ4dpyunocsutJWvFuqOpOGOm.jpg",
        "release_date": "2018-04-25",
        "title": "Avengers : Infinity War",
        "video": false,
        "vote_average": 8.3,
        "vote_count": 7125,
        "popularity": 264.598
      },
      {
        "id": 353081,
        "video": false,
        "vote_count": 1047,
        "vote_average": 7.4,
        "title": "Mission : Impossible - Fallout",
        "release_date": "2018-07-25",
        "original_language": "en",
        "original_title": "Mission: Impossible - Fallout",
        "genre_ids": [
          28,
          12,
          53
        ],
        "backdrop_path": "/5qxePyMYDisLe8rJiBYX8HKEyv2.jpg",
        "adult": false,
        "overview": "Les meilleures intentions finissent souvent par se retourner contre vous…  Dans MISSION : IMPOSSIBLE – FALLOUT, Ethan Hunt accompagné de son équipe de l’IMF – Impossible Mission Force et de quelques fidèles alliées sont lancés dans une course contre la montre, suite au terrible échec d’une mission.",
        "poster_path": "/mddMreLheR9JE0BTyxDEc6QG5ie.jpg",
        "popularity": 137.94
      },
      {
        "adult": false,
        "backdrop_path": "/oMKFQmoVgB69fyXfSMu0lGlHJP2.jpg",
        "genre_ids": [
          28,
          18,
          53
        ],
        "id": 447200,
        "original_language": "en",
        "original_title": "Skyscraper",
        "overview": "Will Ford, ancien leader de l’équipe de libération d’otages du FBI, ancien vétéran de guerre, et maintenant responsable de la sécurité des gratte-ciels est affecté en Chine. Il découvre le bâtiment le plus grand et le plus sûr du monde soudainement en feu et est accusé de l’avoir déclenché. Désormais considéré comme un fugitif, Will doit trouver les coupables, rétablir sa réputation et sauver sa famille emprisonnée à l’intérieur du bâtiment…au-dessus de la ligne de feu.",
        "poster_path": "/5LYSsOPzuP13201qSzMjNxi8FxN.jpg",
        "release_date": "2018-07-11",
        "title": "Skyscraper",
        "video": false,
        "vote_average": 6,
        "vote_count": 479,
        "popularity": 51.399
      },
      {
        "adult": false,
        "backdrop_path": "/mabuNsGJgRuCTuGqjFkWe1xdu19.jpg",
        "genre_ids": [
          28,
          12,
          16,
          10751
        ],
        "id": 260513,
        "original_language": "en",
        "original_title": "Incredibles 2",
        "overview": "Notre famille de super-héros préférée est de retour! Cette fois c’est Hélène qui se retrouve sur le devant de la scène laissant à Bob le soin de mener à bien les mille et une missions de la vie quotidienne et de s’occuper de Violette, Flèche et de bébé Jack-Jack. C’est un changement de rythme difficile pour la famille d’autant que personne ne mesure réellement l’étendue des incroyables pouvoirs du petit dernier… Lorsqu’un nouvel ennemi fait surface, la famille et Frozone vont devoir s’allier comme jamais pour déjouer son plan machiavélique.",
        "poster_path": "/Apish2YD3QIAepzxZ96VLkqEZo3.jpg",
        "release_date": "2018-06-14",
        "title": "Les Indestructibles 2",
        "video": false,
        "vote_average": 7.7,
        "vote_count": 1963,
        "popularity": 43.938
      },
      {
        "adult": false,
        "backdrop_path": "/bLJTjfbZ1c5zSNiAvGYs1Uc82ir.jpg",
        "genre_ids": [
          28,
          12,
          14
        ],
        "id": 338970,
        "original_language": "en",
        "original_title": "Tomb Raider",
        "overview": "Rebelle et indépendante, Lara Croft, 21 ans, n'a jamais cru que son père était mort. Elle décide un jour de se rendre sur l'île mystérieuse où il a été vu pour la dernière fois. Un périple où le danger guette à chaque instant…",
        "poster_path": "/ltOkXWOYZoYstuKrMq44yogotHp.jpg",
        "release_date": "2018-03-05",
        "title": "Tomb Raider",
        "video": false,
        "vote_average": 6.3,
        "vote_count": 2567,
        "popularity": 40.811
      },
      {
        "adult": false,
        "backdrop_path": "/7LZ0K4FsALrt7OeNIGOVLNuKQRU.jpg",
        "genre_ids": [
          28,
          12,
          878
        ],
        "id": 348350,
        "original_language": "en",
        "original_title": "Solo: A Star Wars Story",
        "overview": "Spin-off de la saga Star Wars : Au cours de périlleuses aventures dans les bas-fonds d’un monde criminel, Han Solo va faire la connaissance de son imposant futur copilote Chewbacca et croiser la route du charmant escroc Lando Calrissian…",
        "poster_path": "/xcKR6cAhdGmZQxyFfBqW5oPUF6E.jpg",
        "release_date": "2018-05-23",
        "title": "Solo: A Star Wars Story",
        "video": false,
        "vote_average": 6.8,
        "vote_count": 1356,
        "popularity": 31.654
      },
      {
        "adult": false,
        "backdrop_path": "/wrqUiMXttHE4UBFMhLHlN601MZh.jpg",
        "genre_ids": [
          28,
          12,
          14,
          878
        ],
        "id": 427641,
        "original_language": "en",
        "original_title": "Rampage",
        "overview": "Primatologue de profession, David Okoye a plus de mal à nouer des liens avec ses semblables qu'avec les singes. Pas étonnant qu'il se soit pris d'affection pour George, adorable gorille d'une intelligence hors du commun, dont il s'occupe depuis sa naissance. Mais suite à une expérience génétique catastrophique, George se métamorphose en monstre incontrôlable. Et il n'est pas le seul puisque d'autres animaux se transforment en prédateurs enragés aux quatre coins du pays, détruisant tout sur leur passage. Okoye décide alors de travailler d'arrache-pied avec une généticienne pour mettre au point un antidote. Pourront-ils à temps empêcher la planète d'être ravagée ?",
        "poster_path": "/1auGsobyKO9XPOnUvYyoLjhrzkT.jpg",
        "release_date": "2018-04-12",
        "title": "Rampage : Hors de contrôle",
        "video": false,
        "vote_average": 6.1,
        "vote_count": 1752,
        "popularity": 47.562
      },
      {
        "adult": false,
        "backdrop_path": "/6pT73ACl5N1VekdK3wQI8PLfz1E.jpg",
        "genre_ids": [
          28,
          12,
          14,
          878
        ],
        "id": 268896,
        "original_language": "en",
        "original_title": "Pacific Rim: Uprising",
        "overview": "Le conflit planétaire qui oppose les Kaiju, créatures extraterrestres, aux Jaegers, robots géants pilotés par des humains, n’était que la première vague d’une attaque massive contre l’Humanité.  Jake Pentecost, un jeune pilote de Jaeger prometteur dont le célèbre père a sacrifié sa vie pour sauver l’Humanité des monstrueux Kaiju a depuis abandonné son entraînement et s’est retrouvé pris dans l’engrenage du milieu criminel.",
        "poster_path": "/g9d0PK7PgaoNs6kSBKnjeYmPBfF.jpg",
        "release_date": "2018-03-21",
        "title": "Pacific Rim : Uprising",
        "video": false,
        "vote_average": 5.9,
        "vote_count": 1347,
        "popularity": 35.267
      },
      {
        "adult": false,
        "backdrop_path": "/gX5Bi3agqtMlhsoLn7Uv44fEdmi.jpg",
        "genre_ids": [
          28,
          35,
          80,
          53
        ],
        "id": 402900,
        "original_language": "en",
        "original_title": "Ocean's Eight",
        "overview": "La sœur de Danny Ocean rassemble les talents d'une dizaine de ses consœurs pour mettre la main sur un collier très convoité et ainsi confondre un bijoutier crapuleux.",
        "poster_path": "/9fxmD5um8kqj3lCV3TBVKJqRB4P.jpg",
        "release_date": "2018-06-07",
        "title": "Ocean's 8",
        "video": false,
        "vote_average": 7,
        "vote_count": 1025,
        "popularity": 51.997
      },
      {
        "adult": false,
        "backdrop_path": "/roYyPiQDQKmIKUEhO912693tSja.jpg",
        "genre_ids": [
          18,
          27,
          878,
          53
        ],
        "id": 447332,
        "original_language": "en",
        "original_title": "A Quiet Place",
        "overview": "Une famille tente de survivre sous la menace de mystérieuses créatures qui attaquent au moindre bruit. S’ils vous entendent, il est déjà trop tard.",
        "poster_path": "/xlJCSHnR7sbaibX3OY97vEmsjxt.jpg",
        "release_date": "2018-04-03",
        "title": "Sans un bruit",
        "video": false,
        "vote_average": 7.1,
        "vote_count": 2794,
        "popularity": 42.751
      },
      {
        "id": 284054,
        "video": false,
        "vote_count": 7593,
        "vote_average": 7.3,
        "title": "Black Panther",
        "release_date": "2018-02-13",
        "original_language": "en",
        "original_title": "Black Panther",
        "genre_ids": [
          28,
          12,
          14,
          878
        ],
        "backdrop_path": "/b6ZJZHUdMEFECvGiDpJjlfUWela.jpg",
        "adult": false,
        "overview": "Black Panther suit T’Challa qui, après les événements de Captain America : Civil War, retourne chez lui, dans la nation africaine isolée et technologiquement avancée du Wakanda, pour prendre possession du trône. Cependant, quand un vieil ennemi réapparaît sur le radar, le courage de T’Challa en tant que roi et Black Panther est testé quand il est entraîné dans un conflit qui met le sort entier du Wakanda et du monde en danger.",
        "poster_path": "/g94IcdzPswTYl1ISdgn2EwvaZtt.jpg",
        "popularity": 91.763
      },
      {
        "adult": false,
        "backdrop_path": "/ibKeXahq4JD63z6uWQphqoJLvNw.jpg",
        "genre_ids": [
          28,
          27,
          878,
          53
        ],
        "id": 345940,
        "original_language": "en",
        "original_title": "The Meg",
        "overview": "Missionné par un programme international d'observation de la vie sous-marine, un submersible a été attaqué par une créature gigantesque qu'on croyait disparue. Sérieusement endommagé, il gît désormais dans une fosse, au plus profond de l'océan Pacifique, où son équipage est pris au piège. Il n'y a plus de temps à perdre : Jonas Taylor, sauveteur-plongeur expert des fonds marins, est engagé par un océanographe chinois particulièrement visionnaire, contre l'avis de sa fille Suyin.",
        "poster_path": "/xqECHNvzbDL5I3iiOVUkVPJMSbc.jpg",
        "release_date": "2018-08-09",
        "title": "En eaux troubles",
        "video": false,
        "vote_average": 6.2,
        "vote_count": 447,
        "popularity": 175.209
      },
      {
        "adult": false,
        "backdrop_path": "/kaIfm5ryEOwYg8mLbq8HkPuM1Fo.jpg",
        "genre_ids": [
          28,
          12
        ],
        "id": 284053,
        "original_language": "en",
        "original_title": "Thor: Ragnarok",
        "overview": "Thor est emprisonné de l’autre côté de l’univers sans son puissant marteau et se retrouve engagé dans une course contre le temps pour rejoindre Asgard et arrêter Ragnarok – la destruction de son monde natal et la fin de la civilisation Asgardienne – des mains d’une toute nouvelle menace, l’impitoyable Hela. Mais d’abord, il doit survivre à une compétition meurtrière de gladiateurs qui l’oppose à son ancien allié et compagnon Avenger – l’Incroyable Hulk !",
        "poster_path": "/pNLGDvsJyTRdjVUJdc4iy6BQYK5.jpg",
        "release_date": "2017-10-25",
        "title": "Thor : Ragnarok",
        "video": false,
        "vote_average": 7.5,
        "vote_count": 7915,
        "popularity": 65.346
      },
      {
        "adult": false,
        "backdrop_path": "/rz3TAyd5kmiJmozp3GUbYeB5Kep.jpg",
        "genre_ids": [
          28,
          12,
          35,
          14
        ],
        "id": 353486,
        "original_language": "en",
        "original_title": "Jumanji: Welcome to the Jungle",
        "overview": "Quatre lycéens découvrent une vieille console contenant un jeu vidéo dont ils n’avaient jamais entendu parler : Jumanji. En voulant jouer, ils se retrouvent mystérieusement propulsés dans la jungle de Jumanji, où ils deviennent leurs avatars. Spencer est désormais un aventurier musclé; Fridge le footeux devient un véritable Einstein; Bethany, la fille si populaire au lycée, se transforme en professeur d’âge mûr et la timide Martha est maintenant une redoutable combattante.  Ils vont rapidement découvrir qu’il ne suffit pas de jouer à Jumanji, il faut y survivre… Pour vaincre le jeu et revenir dans le monde réel, ils vont devoir affronter les pires dangers, découvrir ce qu’Alan Parrish a laissé vingt ans auparavant, et changer leur façon de voir la vie et eux-mêmes. Sinon, ils resteront prisonniers de Jumanji pour toujours…",
        "poster_path": "/y1zgYmxkQDvi9Tev74PYbmer2Mv.jpg",
        "release_date": "2017-12-09",
        "title": "Jumanji : Bienvenue dans la jungle",
        "video": false,
        "vote_average": 6.6,
        "vote_count": 5154,
        "popularity": 20.109
      },
      {
        "adult": false,
        "backdrop_path": "/bvbyidkMaBls1LTaIWYY6UmYTaL.jpg",
        "genre_ids": [
          28,
          12,
          14,
          9648,
          878,
          53
        ],
        "id": 336843,
        "original_language": "en",
        "original_title": "Maze Runner: The Death Cure",
        "overview": "Dans ce dernier volet de l’épopée LE LABYRINTHE, Thomas et les Blocards s’engagent dans une ultime mission, plus dangereuse que jamais. Afin de sauver leurs amis, ils devront pénétrer dans la légendaire et sinueuse Dernière Ville contrôlée par la terrible organisation WICKED. Une cité qui pourrait s’avérer être le plus redoutable des labyrinthes. Seuls les Blocards qui parviendront à en sortir vivants auront une chance d’obtenir les réponses tant recherchées depuis leur réveil au cœur du Labyrinthe.",
        "poster_path": "/3inyXrUGtxsalrSFbUSJgnOGbCs.jpg",
        "release_date": "2018-01-10",
        "title": "Le Labyrinthe : Le Remède mortel",
        "video": false,
        "vote_average": 7.1,
        "vote_count": 2467,
        "popularity": 30.549
      },
      {
        "adult": false,
        "backdrop_path": "/o5T8rZxoWSBMYwjsUFUqTt6uMQB.jpg",
        "genre_ids": [
          28,
          12,
          14,
          878
        ],
        "id": 141052,
        "original_language": "en",
        "original_title": "Justice League",
        "overview": "Après avoir retrouvé foi en l'humanité, Bruce Wayne, inspiré par l'altruisme de Superman, sollicite l'aide de sa nouvelle alliée, Diana Prince, pour affronter un ennemi plus redoutable que jamais. Ensemble, Batman et Wonder Woman ne tardent pas à recruter une équipe de méta-humains pour faire face à cette menace inédite. Pourtant, malgré la force que représente cette ligue de héros sans précédent – Batman, Wonder Woman, Aquaman, Cyborg et The Flash –, il est peut-être déjà trop tard pour sauver la planète d'une attaque apocalyptique…",
        "poster_path": "/eMlVBnd5NPHDJ3DkhMzokfnymAB.jpg",
        "release_date": "2017-11-15",
        "title": "Justice League",
        "video": false,
        "vote_average": 6.3,
        "vote_count": 5409,
        "popularity": 33.079
      },
      {
        "adult": false,
        "backdrop_path": "/dj5fwtC4iFdP9j4Zeiw3GqNf0qM.jpg",
        "genre_ids": [
          35,
          80,
          9648,
          53
        ],
        "id": 445571,
        "original_language": "en",
        "original_title": "Game Night",
        "overview": "Pour pimenter leur vie de couple, Max et Annie animent un jeu une nuit par semaine. Cette fois ils comptent sur Brooks, le frère charismatique de Max, pour organiser une super soirée à thème autour du polar, avec vrais faux malfrats et agents fédéraux ! Brooks a même prévu de se faire enlever… sauf qu'il reste introuvable. En tentant de résoudre l'énigme, nos joueurs invétérés commencent à comprendre qu'ils se sont peut-être trompés sur toute la ligne. De fausse piste en rebondissement, ils n'ont plus aucun point de repère et ne savent plus s'il s'agit encore d'un jeu… ou pas. Cette nuit risque bien d'être la plus délirante – et la plus dangereuse – de toute leur carrière de joueurs…",
        "poster_path": "/fkUNdAMqAR9HzkhIr98Un0cXKS1.jpg",
        "release_date": "2018-02-22",
        "title": "Game Night",
        "video": false,
        "vote_average": 6.9,
        "vote_count": 1485,
        "popularity": 33.904
      }
    ],
    "total_pages": 2,
    "total_results": 40
  }
}
